%YAML 1.1
%TAG !u! tag:unity3d.com,2011:
--- !u!1045 &1
EditorBuildSettings:
  m_ObjectHideFlags: 0
  serializedVersion: 2
  m_Scenes:
  - enabled: 1
    path: Assets/Scenes/MainMenu.unity
    guid: b1c23a8338e312a49ae4b4a8098e319a
  - enabled: 1
    path: Assets/Scenes/MainMenuPort.unity
    guid: 63a7cf67ca2dfe54f8436c57b289bfab
  - enabled: 1
    path: Assets/Scenes/GameScene.unity
    guid: a70e7c052bfa184489cc1bed11a4ab13
  - enabled: 1
    path: Assets/Scenes/PortGameScene.unity
    guid: 67cb26e6e7133a847b9df3da0ca6bb50
  - enabled: 1
    path: Assets/Scenes/GamerResult.unity
    guid: 6a723359b98267f45a43a39d449ccfaa
  - enabled: 1
    path: Assets/Scenes/PortGamerResult.unity
    guid: eacd09abea68f9c43a3247936f13c617
  - enabled: 1
    path: Assets/Scenes/GameOver.unity
    guid: 9045aebd22336cf4d9e86cf25b4b084f
  - enabled: 1
    path: Assets/Scenes/PortGameOver.unity
    guid: 6ef647408de94af4cacbb9a313f04864
  - enabled: 1
    path: Assets/Scenes/Levels.unity
    guid: b4670a85bb889ec4b8b726b9e3cba1e5
  - enabled: 1
    path: Assets/Scenes/PortLevels.unity
    guid: d40363f5efcbf344ab38a258543c5e92
  - enabled: 1
    path: Assets/Scenes/Achievement.unity
    guid: 1ce7d73eae201584cb28e9eacd9932df
  - enabled: 1
    path: Assets/Scenes/PortLevelsExample 1.unity
    guid: 265589f09aa7c284ea88815651dfdf78
  - enabled: 1
    path: Assets/Scenes/LevelsExample.unity
    guid: 1110e050b7c7fda498543714728d9642
  - enabled: 1
    path: Assets/Scenes/PortAchievement.unity
    guid: 4ac3daafe13536d48a0208d1933baa63
  m_configObjects: {}
